g L_1
usemtl L_1
s off
p 1/5
g L_2
usemtl L_2
s off
p 58/6
g L_3
usemtl L_3
s off
p 59/9
g L_4
usemtl L_4
s off
p 2/10
g L_5
usemtl L_5
s off
p 60/12
g L_6
usemtl L_6
s off
p 61/15
g L_7
usemtl L_7
s off
p 3/23
g L_8
usemtl L_8
s off
p 62/31
g L_9
usemtl L_9
s off
p 4/43
g L_10
usemtl L_10
s off
p 63/61
g L_11
usemtl L_11
s off
p 64/72
g L_12
usemtl L_12
s off
p 5/78
g L_13
usemtl L_13
s off
p 6/82
g L_14
usemtl L_14
s off
p 65/84
g L_15
usemtl L_15
s off
p 7/86
g L_16
usemtl L_16
s off
p 8/88
g L_17
usemtl L_17
s off
p 66/89
g L_18
usemtl L_18
s off
p 9/11
g L_19
usemtl L_19
s off
p 10/14
g L_20
usemtl L_20
s off
p 11/21
g L_21
usemtl L_21
s off
p 12/27
g L_22
usemtl L_22
s off
p 13/34
g L_23
usemtl L_23
s off
p 14/60
g L_24
usemtl L_24
s off
p 15/67
g L_25
usemtl L_25
s off
p 16/73
g L_26
usemtl L_26
s off
p 17/80
g L_27
usemtl L_27
s off
p 18/83
g L_28
usemtl L_28
s off
p 19/46
g L_29
usemtl L_29
s off
p 20/45
g L_30
usemtl L_30
s off
p 21/44
g L_31
usemtl L_31
s off
p 22/52
g L_32
usemtl L_32
s off
p 23/36
g L_33
usemtl L_33
s off
p 24/41
g L_34
usemtl L_34
s off
p 25/51
g L_35
usemtl L_35
s off
p 26/53
g L_36
usemtl L_36
s off
p 27/59
g L_37
usemtl L_37
s off
p 28/16
g L_38
usemtl L_38
s off
p 29/19
g L_39
usemtl L_39
s off
p 30/24
g L_40
usemtl L_40
s off
p 31/30
g L_41
usemtl L_41
s off
p 32/25
g L_42
usemtl L_42
s off
p 33/20
g L_43
usemtl L_43
s off
p 34/65
g L_44
usemtl L_44
s off
p 35/70
g L_45
usemtl L_45
s off
p 36/75
g L_46
usemtl L_46
s off
p 37/79
g L_47
usemtl L_47
s off
p 38/74
g L_48
usemtl L_48
s off
p 39/69
g L_49
usemtl L_49
s off
p 40/26
g L_50
usemtl L_50
s off
p 41/33
g L_51
usemtl L_51
s off
p 42/40
g L_52
usemtl L_52
s off
p 43/50
g L_53
usemtl L_53
s off
p 44/54
g L_54
usemtl L_54
s off
p 45/62
g L_55
usemtl L_55
s off
p 46/68
g L_56
usemtl L_56
s off
p 47/63
g L_57
usemtl L_57
s off
p 48/55
g L_58
usemtl L_58
s off
p 49/47
g L_59
usemtl L_59
s off
p 50/39
g L_60
usemtl L_60
s off
p 51/32
g L_61
usemtl L_61
s off
p 52/38
g L_62
usemtl L_62
s off
p 53/49
g L_63
usemtl L_63
s off
p 54/57
g L_64
usemtl L_64
s off
p 55/58
g L_65
usemtl L_65
s off
p 56/48
g L_66
usemtl L_66
s off
p 57/37
g Border
#usemtl Border
#s 1
p 68/1
p 69/2
p 70/3
p 71/4
p 72/7
p 73/17
p 74/28
p 75/42
p 76/66
p 77/77
p 78/87
p 79/90
p 80/91
p 81/92
p 82/93
p 83/85
p 93/81
p 92/76
p 91/71
p 90/64
p 89/56
p 88/35
p 87/29
p 86/22
p 85/18
p 84/13
p 67/8